projeto-quartus/simulation/qsim/ssr-verilog.msim.vcd
$comment
	File created using the following command:
		vcd file ssr-verilog.msim.vcd -direction
$end
$date
	Fri Dec 04 00:35:56 2020
$end
$version
	ModelSim Version 2020.1
$end
$timescale
	1ps
$end

$scope module temporizador_3min_vlg_vec_tst $end
$var reg 1 ! clk $end
$var reg 3 " clr [2:0] $end
$var wire 1 # hab $end
$var wire 1 $ segmentos [8] $end
$var wire 1 % segmentos [7] $end
$var wire 1 & segmentos [6] $end
$var wire 1 ' segmentos [5] $end
$var wire 1 ( segmentos [4] $end
$var wire 1 ) segmentos [3] $end
$var wire 1 * segmentos [2] $end
$var wire 1 + segmentos [1] $end
$var wire 1 , segmentos [0] $end

$scope module i1 $end
$var wire 1 - gnd $end
$var wire 1 . vcc $end
$var wire 1 / unknown $end
$var tri1 1 0 devclrn $end
$var tri1 1 1 devpor $end
$var tri1 1 2 devoe $end
$var wire 1 3 segmentos[0]~output_o $end
$var wire 1 4 segmentos[1]~output_o $end
$var wire 1 5 segmentos[2]~output_o $end
$var wire 1 6 segmentos[3]~output_o $end
$var wire 1 7 segmentos[4]~output_o $end
$var wire 1 8 segmentos[5]~output_o $end
$var wire 1 9 segmentos[6]~output_o $end
$var wire 1 : segmentos[7]~output_o $end
$var wire 1 ; segmentos[8]~output_o $end
$var wire 1 < hab~output_o $end
$var wire 1 = clk~input_o $end
$var wire 1 > mod10|ff1|q~0_combout $end
$var wire 1 ? mod3|ff2|q~0_combout $end
$var wire 1 @ clr[0]~input_o $end
$var wire 1 A mod3|clear_aux~0_combout $end
$var wire 1 B mod3|ff2|q~q $end
$var wire 1 C and3~combout $end
$var wire 1 D mod2|ff1|q~0_combout $end
$var wire 1 E mod2|ff1|q~q $end
$var wire 1 F clr[2]~input_o $end
$var wire 1 G mod10|ff3|q~0_combout $end
$var wire 1 H mod10|ff3|q~q $end
$var wire 1 I mod10|ff4|q~0_combout $end
$var wire 1 J mod10|ff4|q~q $end
$var wire 1 K mod10|clr_aux~0_combout $end
$var wire 1 L mod10|ff1|q~q $end
$var wire 1 M mod10|ff2|q~0_combout $end
$var wire 1 N mod10|ff2|q~q $end
$var wire 1 O and1~combout $end
$var wire 1 P mod5|ff1|q~0_combout $end
$var wire 1 Q clr[1]~input_o $end
$var wire 1 R mod5|ff3|q~0_combout $end
$var wire 1 S mod5|ff3|q~q $end
$var wire 1 T mod5|clear_aux~0_combout $end
$var wire 1 U mod5|ff1|q~q $end
$var wire 1 V mod5|ff2|q~0_combout $end
$var wire 1 W mod5|ff2|q~q $end
$var wire 1 X and2~combout $end
$var wire 1 Y mod3|ff1|q~0_combout $end
$var wire 1 Z mod3|ff1|q~q $end
$upscope $end
$upscope $end
$enddefinitions $end
#0
$dumpvars
0!
b0 "
0#
0,
0+
0*
0)
0(
0'
0&
0%
0$
0-
1.
x/
10
11
12
03
04
05
06
07
08
09
0:
0;
0<
0=
1>
0?
0@
0A
0B
0C
1D
0E
0F
0G
0H
0I
0J
0K
0L
0M
0N
0O
1P
0Q
0R
0S
0T
0U
0V
0W
0X
1Y
0Z
$end
#500000
1!
1=
1L
18
1'
1M
0>
#1000000
0!
0=
#1500000
1!
1=
1N
0L
08
19
1&
0'
1>
#2000000
0!
0=
#2500000
1!
1=
1L
18
1'
0M
1G
0>
#3000000
0!
0=
#3500000
1!
1=
0N
0L
1H
1:
08
09
0&
0'
1%
1>
#4000000
0!
0=
#4500000
1!
1=
1L
18
1'
1M
0>
#5000000
0!
0=
#5500000
1!
1=
1N
0L
08
19
1&
0'
1>
#6000000
0!
0=
#6500000
1!
1=
1L
18
1'
0M
1I
0G
0>
#7000000
0!
0=
#7500000
1!
1=
0N
0L
1J
0H
0:
1;
08
09
0&
0'
1$
0%
1>
#8000000
0!
0=
#8500000
1!
1=
1L
18
1'
1M
0>
#9000000
0!
0=
#9500000
1!
1=
1N
0L
08
19
1K
1&
0'
1O
1>
0J
0N
1U
15
09
0;
0K
0$
0&
1*
0O
0I
0M
1V
0P
#10000000
0!
0=
#10500000
1!
1=
1L
18
1'
1M
0>
#11000000
0!
0=
#11500000
1!
1=
1N
0L
08
19
1&
0'
1>
#12000000
0!
0=
#12500000
1!
1=
1L
18
1'
0M
1G
0>
#13000000
0!
0=
#13500000
1!
1=
0N
0L
1H
1:
08
09
0&
0'
1%
1>
#14000000
0!
0=
#14500000
1!
1=
1L
18
1'
1M
0>
#15000000
0!
0=
#15500000
1!
1=
1N
0L
08
19
1&
0'
1>
#16000000
0!
0=
#16500000
1!
1=
1L
18
1'
0M
1I
0G
0>
#17000000
0!
0=
#17500000
1!
1=
0N
0L
1J
0H
0:
1;
08
09
0&
0'
1$
0%
1>
#18000000
0!
0=
#18500000
1!
1=
1L
18
1'
1M
0>
#19000000
0!
0=
#19500000
1!
1=
1N
0L
08
19
1K
1&
0'
1O
1>
0J
0N
1W
0U
05
16
09
0;
0K
0$
0&
1)
0*
0O
0I
0M
1P
#20000000
0!
0=
#20500000
1!
1=
1L
18
1'
1M
0>
#21000000
0!
0=
#21500000
1!
1=
1N
0L
08
19
1&
0'
1>
#22000000
0!
0=
#22500000
1!
1=
1L
18
1'
0M
1G
0>
#23000000
0!
0=
#23500000
1!
1=
0N
0L
1H
1:
08
09
0&
0'
1%
1>
#24000000
0!
0=
#24500000
1!
1=
1L
18
1'
1M
0>
#25000000
0!
0=
#25500000
1!
1=
1N
0L
08
19
1&
0'
1>
#26000000
0!
0=
#26500000
1!
1=
1L
18
1'
0M
1I
0G
0>
#27000000
0!
0=
#27500000
1!
1=
0N
0L
1J
0H
0:
1;
08
09
0&
0'
1$
0%
1>
#28000000
0!
0=
#28500000
1!
1=
1L
18
1'
1M
0>
#29000000
0!
0=
#29500000
1!
1=
1N
0L
08
19
1K
1&
0'
1O
1>
0J
0N
1U
15
09
0;
0K
0$
0&
1*
0O
0I
0M
0V
1R
0P
#30000000
0!
0=
#30500000
1!
1=
1L
18
1'
1M
0>
#31000000
0!
0=
#31500000
1!
1=
1N
0L
08
19
1&
0'
1>
#32000000
0!
0=
#32500000
1!
1=
1L
18
1'
0M
1G
0>
#33000000
0!
0=
#33500000
1!
1=
0N
0L
1H
1:
08
09
0&
0'
1%
1>
#34000000
0!
0=
#34500000
1!
1=
1L
18
1'
1M
0>
#35000000
0!
0=
#35500000
1!
1=
1N
0L
08
19
1&
0'
1>
#36000000
0!
0=
#36500000
1!
1=
1L
18
1'
0M
1I
0G
0>
#37000000
0!
0=
#37500000
1!
1=
0N
0L
1J
0H
0:
1;
08
09
0&
0'
1$
0%
1>
#38000000
0!
0=
#38500000
1!
1=
1L
18
1'
1M
0>
#39000000
0!
0=
#39500000
1!
1=
1N
0L
08
19
1K
1&
0'
1O
1>
0J
0N
0W
0U
1S
17
05
06
09
0;
0K
0$
0&
0)
0*
1(
0O
0I
0M
1P
#40000000
0!
0=
#40500000
1!
1=
1L
18
1'
1M
0>
#41000000
0!
0=
#41500000
1!
1=
1N
0L
08
19
1&
0'
1>
#42000000
0!
0=
#42500000
1!
1=
1L
18
1'
0M
1G
0>
#43000000
0!
0=
#43500000
1!
1=
0N
0L
1H
1:
08
09
0&
0'
1%
1>
#44000000
0!
0=
#44500000
1!
1=
1L
18
1'
1M
0>
#45000000
0!
0=
#45500000
1!
1=
1N
0L
08
19
1&
0'
1>
#46000000
0!
0=
#46500000
1!
1=
1L
18
1'
0M
1I
0G
0>
#47000000
0!
0=
#47500000
1!
1=
0N
0L
1J
0H
0:
1;
08
09
0&
0'
1$
0%
1>
#48000000
0!
0=
#48500000
1!
1=
1L
18
1'
1M
0>
#49000000
0!
0=
#49500000
1!
1=
1N
0L
08
19
1K
1&
0'
1O
1>
0J
0N
1U
15
09
0;
0K
0$
0&
1*
0O
0I
0M
1V
0P
#50000000
0!
0=
#50500000
1!
1=
1L
18
1'
1M
0>
#51000000
0!
0=
#51500000
1!
1=
1N
0L
08
19
1&
0'
1>
#52000000
0!
0=
#52500000
1!
1=
1L
18
1'
0M
1G
0>
#53000000
0!
0=
#53500000
1!
1=
0N
0L
1H
1:
08
09
0&
0'
1%
1>
#54000000
0!
0=
#54500000
1!
1=
1L
18
1'
1M
0>
#55000000
0!
0=
#55500000
1!
1=
1N
0L
08
19
1&
0'
1>
#56000000
0!
0=
#56500000
1!
1=
1L
18
1'
0M
1I
0G
0>
#57000000
0!
0=
#57500000
1!
1=
0N
0L
1J
0H
0:
1;
08
09
0&
0'
1$
0%
1>
#58000000
0!
0=
#58500000
1!
1=
1L
18
1'
1M
0>
#59000000
0!
0=
#59500000
1!
1=
1N
0L
08
19
1K
1&
0'
1O
1>
0J
0N
1W
0U
05
16
09
0;
0K
1T
0$
0&
1)
0*
0O
0I
0M
1X
1P
0S
0W
1Z
13
06
07
0T
0(
0)
1,
0X
0R
0V
0Y
1?
#60000000
0!
0=
#60500000
1!
1=
1L
18
1'
1M
0>
#61000000
0!
0=
#61500000
1!
1=
1N
0L
08
19
1&
0'
1>
#62000000
0!
0=
#62500000
1!
1=
1L
18
1'
0M
1G
0>
#63000000
0!
0=
#63500000
1!
1=
0N
0L
1H
1:
08
09
0&
0'
1%
1>
#64000000
0!
0=
#64500000
1!
1=
1L
18
1'
1M
0>
#65000000
0!
0=
#65500000
1!
1=
1N
0L
08
19
1&
0'
1>
#66000000
0!
0=
#66500000
1!
1=
1L
18
1'
0M
1I
0G
0>
#67000000
0!
0=
#67500000
1!
1=
0N
0L
1J
0H
0:
1;
08
09
0&
0'
1$
0%
1>
#68000000
0!
0=
#68500000
1!
1=
1L
18
1'
1M
0>
#69000000
0!
0=
#69500000
1!
1=
1N
0L
08
19
1K
1&
0'
1O
1>
0J
0N
1U
15
09
0;
0K
0$
0&
1*
0O
0I
0M
1V
0P
#70000000
0!
0=
#70500000
1!
1=
1L
18
1'
1M
0>
#71000000
0!
0=
#71500000
1!
1=
1N
0L
08
19
1&
0'
1>
#72000000
0!
0=
#72500000
1!
1=
1L
18
1'
0M
1G
0>
#73000000
0!
0=
#73500000
1!
1=
0N
0L
1H
1:
08
09
0&
0'
1%
1>
#74000000
0!
0=
#74500000
1!
1=
1L
18
1'
1M
0>
#75000000
0!
0=
#75500000
1!
1=
1N
0L
08
19
1&
0'
1>
#76000000
0!
0=
#76500000
1!
1=
1L
18
1'
0M
1I
0G
0>
#77000000
0!
0=
#77500000
1!
1=
0N
0L
1J
0H
0:
1;
08
09
0&
0'
1$
0%
1>
#78000000
0!
0=
#78500000
1!
1=
1L
18
1'
1M
0>
#79000000
0!
0=
#79500000
1!
1=
1N
0L
08
19
1K
1&
0'
1O
1>
0J
0N
1W
0U
05
16
09
0;
0K
0$
0&
1)
0*
0O
0I
0M
1P
#80000000
0!
0=
#80500000
1!
1=
1L
18
1'
1M
0>
#81000000
0!
0=
#81500000
1!
1=
1N
0L
08
19
1&
0'
1>
#82000000
0!
0=
#82500000
1!
1=
1L
18
1'
0M
1G
0>
#83000000
0!
0=
#83500000
1!
1=
0N
0L
1H
1:
08
09
0&
0'
1%
1>
#84000000
0!
0=
#84500000
1!
1=
1L
18
1'
1M
0>
#85000000
0!
0=
#85500000
1!
1=
1N
0L
08
19
1&
0'
1>
#86000000
0!
0=
#86500000
1!
1=
1L
18
1'
0M
1I
0G
0>
#87000000
0!
0=
#87500000
1!
1=
0N
0L
1J
0H
0:
1;
08
09
0&
0'
1$
0%
1>
#88000000
0!
0=
#88500000
1!
1=
1L
18
1'
1M
0>
#89000000
0!
0=
#89500000
1!
1=
1N
0L
08
19
1K
1&
0'
1O
1>
0J
0N
1U
15
09
0;
0K
0$
0&
1*
0O
0I
0M
0V
1R
0P
#90000000
0!
0=
#90500000
1!
1=
1L
18
1'
1M
0>
#91000000
0!
0=
#91500000
1!
1=
1N
0L
08
19
1&
0'
1>
#92000000
0!
0=
#92500000
1!
1=
1L
18
1'
0M
1G
0>
#93000000
0!
0=
#93500000
1!
1=
0N
0L
1H
1:
08
09
0&
0'
1%
1>
#94000000
0!
0=
#94500000
1!
1=
1L
18
1'
1M
0>
#95000000
0!
0=
#95500000
1!
1=
1N
0L
08
19
1&
0'
1>
#96000000
0!
0=
#96500000
1!
1=
1L
18
1'
0M
1I
0G
0>
#97000000
0!
0=
#97500000
1!
1=
0N
0L
1J
0H
0:
1;
08
09
0&
0'
1$
0%
1>
#98000000
0!
0=
#98500000
1!
1=
1L
18
1'
1M
0>
#99000000
0!
0=
#99500000
1!
1=
1N
0L
08
19
1K
1&
0'
1O
1>
0J
0N
0W
0U
1S
17
05
06
09
0;
0K
0$
0&
0)
0*
1(
0O
0I
0M
1P
